Fitting linear models in R
…
---

### Estimating bike crashes in NC counties

<img src="img/bike_crash.jpg" width="100%" style="display: block; margin: auto;" />
<!-- .center[Image credit: Petar Milošević, [CC BY-SA 4.0](https://creativecommons.org/licenses/by-sa/4.0), via Wikimedia Commons] -->

---

### Data

```
## # A tibble: 100 x 2
##    county    crashes
##    <chr>       <dbl>
##  1 Alamance       77
##  2 Alexander       1
##  3 Alleghany       1
##  4 Anson           7
##  5 Ashe            4
##  6 Avery           5
##  7 Beaufort       37
##  8 Bertie         10
##  9 Bladen          9
## 10 Brunswick      88
## # ... with 90 more rows
```
…
as expected. Next, let's verify that `\(\hat{\lambda}\)` is indeed a maximum:

`\begin{align*}
\frac{\partial^2}{\partial\lambda^2}\log \mathcal{L}(\lambda | Y) &= -\frac{1}{\lambda^2}\sum_{i = 1}^n y_i - n\\
&< 0.
\end{align*}`

---

### Can we do better?

```
## # A tibble: 100 x 6
##    county       pop med_hh_income traffic_vol pct_rural crashes
##    <chr>      <dbl>         <dbl>       <dbl>     <dbl>   <dbl>
##  1 Alamance  166436          50.5         182        29      77
##  2 Alexander  37353          49.1          13        73       1
##  3 Alleghany  11161          39.7          28       100       1
##  4 Anson      24877          38            79        79       7
##  5 Ashe       27109          41.9          18        85       4
##  6 Avery      17505          41.7          35        89       5
##  7 Beaufort   47079          46.4          53        66      37
##  8 Bertie     19026          35.4          24        83      10
##  9 Bladen     33190          37            19        91       9
## 10 Brunswick 136744          60.2          43        43      88
## # ... with 90 more rows
```
…
Newton-Raphson update steps for Poisson regression: 

`\begin{align*}
\boldsymbol\beta^{(t+1)} &= \boldsymbol\beta^{(t)} - \left(-\sum_{i = 1}^n e^{\mathbf{X}_i\boldsymbol\beta}\mathbf{X}_i\mathbf{X}_i^T \right)^{-1}\left(\sum_{i = 1}^n \left(y_i - e^{\mathbf{X}_i\boldsymbol\beta}\right)\mathbf{X}_i^T \right)
\end{align*}`

---

### Back to bike crashes

```
## # A tibble: 100 x 6
##    county       pop med_hh_income traffic_vol pct_rural crashes
##    <chr>      <dbl>         <dbl>       <dbl>     <dbl>   <dbl>
##  1 Alamance  166436          50.5         182        29      77
##  2 Alexander  37353          49.1          13        73       1
##  3 Alleghany  11161          39.7          28       100       1
##  4 Anson      24877          38            79        79       7
##  5 Ashe       27109          41.9          18        85       4
##  6 Avery      17505          41.7          35        89       5
##  7 Beaufort   47079          46.4          53        66      37
##  8 Bertie     19026          35.4          24        83      10
##  9 Bladen     33190          37            19        91       9
## 10 Brunswick 136744          60.2          43        43      88
## # ... with 90 more rows
```
…
